Connected tables of data published in OpenFoodTox — oft • OpenFoodTox
…
# Collect endpoints on green algae
green_algae_endpoints <- oft$reference_points |>
  dplyr::filter(Species %in% oft_green_algae) |>
  select(Substance, Species, DurationDays, Endpoint, qualifier, value, unit, Effect)
print(green_algae_endpoints)
#> # A tibble: 510 × 8
#>    Substance        Species DurationDays Endpoint qualifier   value unit  Effect
#>    <chr>            <chr>          <dbl> <chr>    <chr>       <dbl> <chr> <chr> 
#>  1 (2E)-Methylcrot… Green …           NA EC50     =         9.03e+2 mg/L  morta…
#>  2 (3RS,4RS;3RS,4S… Scened…            3 EC50     =         2.1 e-3 mg/L  bioma…
#>  3 (8,9-Z)-isomer … Pseudo…            3 EC50     >         9   e+3 µg/L  bioma…
#>  4 (8,9-Z)-isomer … Pseudo…            3 EC50     >         9   e+0 mg/L  bioma…
#>  5 (E,E)-8,10-Dode… Pseudo…            3 EC50     =         5.23e-1 mg/L  growth
#>  6 (RS)-2,4-dinitr… Pseudo…            4 EC50     =         2.12e+0 mg/L  other 
#>  7 1,2,4-Triazole   Pseudo…            3 EC50     =         8.2 e+0 mg/L  bioma…
#>  8 1,2-Benzisothia… Scened…           NA EC50     >         1   e+2 mg/L  growth
#>  9 1,3-Dichloropro… Pseudo…            4 EC50     =         5.45e+0 mg/L  growth
#> 10 1,4-Dimethylnap… Pseudo…            4 EC50     =         3.2 e-1 mg/L  bioma…
#> # ℹ 500 more rows
…
